{
    "page": 1,
    "per_page": 6,
    "photos": [
        {
            "id": 3225517,
            "width": 4664,
            "height": 5830,
            "url": "https://www.pexels.com/photo/photo-of-stream-during-daytime-3225517/",
            "photographer": "Michael Block",
            "photographer_url": "https://www.pexels.com/@michael-block-1691617",
            "photographer_id": 1691617,
            "avg_color": "#6D7B7C",
            "src": {
                "original": "https://images.pexels.com/photos/3225517/pexels-photo-3225517.jpeg",
                "large2x": "https://images.pexels.com/photos/3225517/pexels-photo-3225517.jpeg?auto=compress&cs=tinysrgb&dpr=2&h=650&w=940",
                "large": "https://images.pexels.com/photos/3225517/pexels-photo-3225517.jpeg?auto=compress&cs=tinysrgb&h=650&w=940",
                "medium": "https://images.pexels.com/photos/3225517/pexels-photo-3225517.jpeg?auto=compress&cs=tinysrgb&h=350",
                "small": "https://images.pexels.com/photos/3225517/pexels-photo-3225517.jpeg?auto=compress&cs=tinysrgb&h=130",
                "portrait": "https://images.pexels.com/photos/3225517/pexels-photo-3225517.jpeg?auto=compress&cs=tinysrgb&fit=crop&h=1200&w=800",
                "landscape": "https://images.pexels.com/photos/3225517/pexels-photo-3225517.jpeg?auto=compress&cs=tinysrgb&fit=crop&h=627&w=1200",
                "tiny": "https://images.pexels.com/photos/3225517/pexels-photo-3225517.jpeg?auto=compress&cs=tinysrgb&dpr=1&fit=crop&h=200&w=280"
            },
            "liked": false,
            "alt": "Photo Of Stream During Daytime"
        },
        {
            "id": 1547813,
            "width": 3795,
            "height": 5693,
            "url": "https://www.pexels.com/photo/red-trees-1547813/",
            "photographer": "Artem Saranin",
            "photographer_url": "https://www.pexels.com/@arts",
            "photographer_id": 359504,
            "avg_color": "#4B3536",
            "src": {
                "original": "https://images.pexels.com/photos/1547813/pexels-photo-1547813.jpeg",
                "large2x": "https://images.pexels.com/photos/1547813/pexels-photo-1547813.jpeg?auto=compress&cs=tinysrgb&dpr=2&h=650&w=940",
                "large": "https://images.pexels.com/photos/1547813/pexels-photo-1547813.jpeg?auto=compress&cs=tinysrgb&h=650&w=940",
                "medium": "https://images.pexels.com/photos/1547813/pexels-photo-1547813.jpeg?auto=compress&cs=tinysrgb&h=350",
                "small": "https://images.pexels.com/photos/1547813/pexels-photo-1547813.jpeg?auto=compress&cs=tinysrgb&h=130",
                "portrait": "https://images.pexels.com/photos/1547813/pexels-photo-1547813.jpeg?auto=compress&cs=tinysrgb&fit=crop&h=1200&w=800",
                "landscape": "https://images.pexels.com/photos/1547813/pexels-photo-1547813.jpeg?auto=compress&cs=tinysrgb&fit=crop&h=627&w=1200",
                "tiny": "https://images.pexels.com/photos/1547813/pexels-photo-1547813.jpeg?auto=compress&cs=tinysrgb&dpr=1&fit=crop&h=200&w=280"
            },
            "liked": false,
            "alt": "Red Trees"
        },
        {
            "id": 316398,
            "width": 5760,
            "height": 3840,
            "url": "https://www.pexels.com/photo/green-pine-trees-under-white-sky-316398/",
            "photographer": "Markus Spiske",
            "photographer_url": "https://www.pexels.com/@markusspiske",
            "photographer_id": 19851,
            "avg_color": "#9D9C96",
            "src": {
                "original": "https://images.pexels.com/photos/316398/pexels-photo-316398.jpeg",
                "large2x": "https://images.pexels.com/photos/316398/pexels-photo-316398.jpeg?auto=compress&cs=tinysrgb&dpr=2&h=650&w=940",
                "large": "https://images.pexels.com/photos/316398/pexels-photo-316398.jpeg?auto=compress&cs=tinysrgb&h=650&w=940",
                "medium": "https://images.pexels.com/photos/316398/pexels-photo-316398.jpeg?auto=compress&cs=tinysrgb&h=350",
                "small": "https://images.pexels.com/photos/316398/pexels-photo-316398.jpeg?auto=compress&cs=tinysrgb&h=130",
                "portrait": "https://images.pexels.com/photos/316398/pexels-photo-316398.jpeg?auto=compress&cs=tinysrgb&fit=crop&h=1200&w=800",
                "landscape": "https://images.pexels.com/photos/316398/pexels-photo-316398.jpeg?auto=compress&cs=tinysrgb&fit=crop&h=627&w=1200",
                "tiny": "https://images.pexels.com/photos/316398/pexels-photo-316398.jpeg?auto=compress&cs=tinysrgb&dpr=1&fit=crop&h=200&w=280"
            },
            "liked": false,
            "alt": "Green Pine Trees Under White Sky"
        },
        {
            "id": 15286,
            "width": 2500,
            "height": 1667,
            "url": "https://www.pexels.com/photo/person-walking-between-green-forest-trees-15286/",
            "photographer": "Luis del Río",
            "photographer_url": "https://www.pexels.com/@luisdelrio",
            "photographer_id": 1081,
            "avg_color": "#283419",
            "src": {
                "original": "https://images.pexels.com/photos/15286/pexels-photo.jpg",
                "large2x": "https://images.pexels.com/photos/15286/pexels-photo.jpg?auto=compress&cs=tinysrgb&dpr=2&h=650&w=940",
                "large": "https://images.pexels.com/photos/15286/pexels-photo.jpg?auto=compress&cs=tinysrgb&h=650&w=940",
                "medium": "https://images.pexels.com/photos/15286/pexels-photo.jpg?auto=compress&cs=tinysrgb&h=350",
                "small": "https://images.pexels.com/photos/15286/pexels-photo.jpg?auto=compress&cs=tinysrgb&h=130",
                "portrait": "https://images.pexels.com/photos/15286/pexels-photo.jpg?auto=compress&cs=tinysrgb&fit=crop&h=1200&w=800",
                "landscape": "https://images.pexels.com/photos/15286/pexels-photo.jpg?auto=compress&cs=tinysrgb&fit=crop&h=627&w=1200",
                "tiny": "https://images.pexels.com/photos/15286/pexels-photo.jpg?auto=compress&cs=tinysrgb&dpr=1&fit=crop&h=200&w=280"
            },
            "liked": false,
            "alt": "Person Walking Between Green Forest Trees"
        },
        {
            "id": 1366909,
            "width": 2000,
            "height": 3000,
            "url": "https://www.pexels.com/photo/low-angle-shot-of-rock-formation-1366909/",
            "photographer": "eberhard grossgasteiger",
            "photographer_url": "https://www.pexels.com/@eberhardgross",
            "photographer_id": 121938,
            "avg_color": "#897C75",
            "src": {
                "original": "https://images.pexels.com/photos/1366909/pexels-photo-1366909.jpeg",
                "large2x": "https://images.pexels.com/photos/1366909/pexels-photo-1366909.jpeg?auto=compress&cs=tinysrgb&dpr=2&h=650&w=940",
                "large": "https://images.pexels.com/photos/1366909/pexels-photo-1366909.jpeg?auto=compress&cs=tinysrgb&h=650&w=940",
                "medium": "https://images.pexels.com/photos/1366909/pexels-photo-1366909.jpeg?auto=compress&cs=tinysrgb&h=350",
                "small": "https://images.pexels.com/photos/1366909/pexels-photo-1366909.jpeg?auto=compress&cs=tinysrgb&h=130",
                "portrait": "https://images.pexels.com/photos/1366909/pexels-photo-1366909.jpeg?auto=compress&cs=tinysrgb&fit=crop&h=1200&w=800",
                "landscape": "https://images.pexels.com/photos/1366909/pexels-photo-1366909.jpeg?auto=compress&cs=tinysrgb&fit=crop&h=627&w=1200",
                "tiny": "https://images.pexels.com/photos/1366909/pexels-photo-1366909.jpeg?auto=compress&cs=tinysrgb&dpr=1&fit=crop&h=200&w=280"
            },
            "liked": false,
            "alt": "Low Angle Shot Of Rock Formation"
        },
        {
            "id": 707344,
            "width": 3648,
            "height": 2432,
            "url": "https://www.pexels.com/photo/silhouette-of-mountain-hill-with-pine-trees-under-white-cloud-blue-sky-707344/",
            "photographer": "eberhard grossgasteiger",
            "photographer_url": "https://www.pexels.com/@eberhardgross",
            "photographer_id": 121938,
            "avg_color": "#766F6E",
            "src": {
                "original": "https://images.pexels.com/photos/707344/pexels-photo-707344.jpeg",
                "large2x": "https://images.pexels.com/photos/707344/pexels-photo-707344.jpeg?auto=compress&cs=tinysrgb&dpr=2&h=650&w=940",
                "large": "https://images.pexels.com/photos/707344/pexels-photo-707344.jpeg?auto=compress&cs=tinysrgb&h=650&w=940",
                "medium": "https://images.pexels.com/photos/707344/pexels-photo-707344.jpeg?auto=compress&cs=tinysrgb&h=350",
                "small": "https://images.pexels.com/photos/707344/pexels-photo-707344.jpeg?auto=compress&cs=tinysrgb&h=130",
                "portrait": "https://images.pexels.com/photos/707344/pexels-photo-707344.jpeg?auto=compress&cs=tinysrgb&fit=crop&h=1200&w=800",
                "landscape": "https://images.pexels.com/photos/707344/pexels-photo-707344.jpeg?auto=compress&cs=tinysrgb&fit=crop&h=627&w=1200",
                "tiny": "https://images.pexels.com/photos/707344/pexels-photo-707344.jpeg?auto=compress&cs=tinysrgb&dpr=1&fit=crop&h=200&w=280"
            },
            "liked": false,
            "alt": "Silhouette of Mountain Hill With Pine Trees Under White Cloud Blue Sky"
        }
    ],
    "total_results": 8000,
    "next_page": "https://api.pexels.com/v1/search/?page=2&per_page=6&query=Nature"
}